Calculate vector scores from Procrustes-aligned landmark templates — calcShapeVS • facefuns
…
# Load vector specifying order of mirrored landmarks
data("mirr_lms")

# Pull together indices of faces for male and female averages
fem_i <- gsub("^ID=","", dimnames(shapedata$array)[[3]]) %in%
LondonSet_info$face_id[which(LondonSet_info$face_sex == "female")]

mal_i <- gsub("^ID=", "", dimnames(shapedata$array)[[3]]) %in%
LondonSet_info$face_id[which(LondonSet_info$face_sex == "male")]

# Calculate vector scores
calcShapeVS(shapedata, fem_i, mal_i, symm=TRUE, mirr_lms = mirr_lms)

#> # A tibble: 102 x 2
#>    id        VS
#>    <chr>  <dbl>
#>  1 001   -0.990
#>  2 002    0.121
#>  3 003   -0.205
#>  4 004    0.748
#>  5 005    0.555
#>  6 006    0.526
#>  7 007   -1.20 
#>  8 008    1.48 
#>  9 009   -1.14 
#> 10 010    0.473
#> # … with 92 more rows
…
